{
    "inputMessageMetadata": {
        "messagePayload": {
            "connectorName": "#_custom_mule_metadata_type_#",
            "typeId": "usuario"
        }
    },
    "outputMessageMetadata": {
        "messagePayload": {
            "connectorName": "#_custom_mule_metadata_type_#",
            "typeId": "usuario-final"
        }
    },
    "id": "2e3a09be-d123-4ce0-bd5e-064284b01826",
    "version": "5.2.0.0"
}